Tidy Analysis of OSYM Data
…
Calculate the fill rate (sum(general_placement)/sum(general_quota)) per city and return the top 10 cities.

osym_data_2017

## # A tibble: 11,465 x 14
##    program_id university_name  city  faculty_name  program_name  exam_type
##    <chr>      <chr>            <chr> <chr>         <chr>         <chr>    
##  1 100110266  ABANT ZZET BAY~ BOLU  Bolu Salk ~ Hemirelik    YGS_2    
##  2 100110487  ABANT ZZET BAY~ BOLU  Bolu Turizm ~ Gastronomi v~ YGS_4    
##  3 100110724  ABANT ZZET BAY~ BOLU  Bolu Turizm ~ Turizm let~ YGS_6    
##  4 100130252  ABANT ZZET BAY~ BOLU  Bolu Turizm ~ Turizm let~ YGS_6    
##  5 100110433  ABANT ZZET BAY~ BOLU  Di Hekimli~ Di Hekimlii MF_3     
##  6 100110609  ABANT ZZET BAY~ BOLU  Di Hekimli~ Di Hekimli~ MF_3     
##  7 100110018  ABANT ZZET BAY~ BOLU  Eitim Fakl~ Bilgisayar v~ MF_1     
##  8 100110027  ABANT ZZET BAY~ BOLU  Eitim Fakl~ Fen Bilgisi ~ MF_2     
##  9 100110036  ABANT ZZET BAY~ BOLU  Eitim Fakl~ lkretim M~ MF_1     
## 10 100110045  ABANT ZZET BAY~ BOLU  Eitim Fakl~ ngilizce ~ DL_1    
## # ... with 11,455 more rows, and 8 more variables: general_quota <dbl>,
## #   general_placement <dbl>, min_score <dbl>, max_score <dbl>,
## #   val_quota <dbl>, val_placement <dbl>, val_min_score <dbl>,
## #   val_max_score <dbl>
…
